
# tri robota, crveni, zeleni i cijan
# karta zavoda

# the size of a pixel in Stage's underlying raytrace model in meters
#resolution     0.056668
resolution 0.01

interval_sim 100  # milliseconds per update step
#interval_real 100 # real-time milliseconds per update step

# defines Pioneer-like robots
include "pioneer.inc"

# defines 'map' object used for floorplans
include "map.inc"
include "sick2.inc"
#size [60 20]
#gui_disable 0

#window( size [ 1024.000 691.000 ] center [-8.369 3.704] scale 37.021 )
window( size [ 569 392 ] center [4.135 3.252] scale 25.306 )


floorplan( 
bitmap "bitmaps/across.png"
map_resolution     0.068000
  pose [5.24 3.74 0.000 0.000] 
  size [10.54 7.48 0.800] 
  name "Hmap"
)


# create a robot
#omnibot
pioneer2dx
(
 name "zeleni"
 color "red"
  pose [7.25 4.25 0.000 -91.0000] #stavila 6.375 umj 6.4 za 0.5 celldim -90.4583662361047
sicklaser(
#pose [0.543 -0.301 0.000 -45.000]
 # ctrl "lasernoise"  # uncomment this line to run a laser noise generator
)
localization_origin [ 0 0 0 0 ]
# [ xmin xmax ymin ymax zmin zmax amin amax ]				
velocity_bounds [-2 2 0 0 0 0 -200 200 ]					
acceleration_bounds [-0.2 0.2 0 0 0 0 -20 20]
)







#pioneer2dx
#(
#name "zeleni"
#  color "green"
# pose [-14.991 6.125 0 -92.120]
#sicklaser()
#  localization_origin [1 2 0 0]
#)

define box model
(
  size [0.300 0.500 0.500]
  laser_return 1 
  obstacle_return 1
  gui_nose 0
)

box( pose [ -2.538 1.380 0.000 180.000 ] color "green")


